#VRML V2.0 utf8

WorldInfo {
	info [ "File created using CATIA" ]
}
NavigationInfo {
	type [ "EXAMINE" , "WALK" , "FLY" ]
}
Background {
	skyColor [ 0 0 0 ]
}
Viewpoint {
	position      -0.369408 0.307842 0.095374
	orientation   0.364183 -0.526848 -0.767986 2.657299
	fieldOfView   0.471225
	description   "Main Viewpoint"
}
Viewpoint {
	position      0.335361 0.299599 0.278412
	orientation   0.187053 0.451587 0.872399 2.448076
	fieldOfView   0.471225
	description   "Iso View"
}
Viewpoint {
	position      0.556030 -0.001840 -0.023027
	orientation   0.577350 0.577350 0.577350 2.094395
	fieldOfView   0.471225
	description   "Front View"
}
Viewpoint {
	position      -0.488186 -0.001840 -0.023027
	orientation   0.577350 -0.577350 -0.577350 2.094395
	fieldOfView   0.471225
	description   "Back View"
}
Viewpoint {
	position      0.033922 -0.523948 -0.023027
	orientation   1.000000 -0.000173 0.000173 1.570796
	fieldOfView   0.471225
	description   "Left View"
}
Viewpoint {
	position      0.033922 0.520268 -0.023027
	orientation   -0.000122 -0.707107 -0.707107 3.141348
	fieldOfView   0.471225
	description   "Right View"
}
Viewpoint {
	position      0.033922 -0.001840 0.499081
	orientation   0.000000 0.000000 1.000000 1.570796
	fieldOfView   0.471225
	description   "Top View"
}
Viewpoint {
	position      0.033922 -0.001840 -0.545134
	orientation   0.707107 0.707107 0.000000 3.141593
	fieldOfView   0.471225
	description   "Bottom View"
}
Transform {
	scale         0.001 0.001 0.001
	children [
Transform {
	children [
Group {
	children [
Group {
	children [
DEF _1EC9E7D8 Group {
	children [
	]
}
	]
}
Group {
	children [
DEF _1EC9F6C8 Group {
	children [
	]
}
	]
}
Group {
	children [
DEF _1EC9CF68 Group {
	children [
	]
}
	]
}
Group {
	children [
Group {
	children [
DEF _22BD6C28 Group {
	children [
Shape {
appearance Appearance {
	material DEF _material0 Material {
		diffuseColor  0.823529 0.823529 1
	}
	material DEF _material1 Material {
		diffuseColor  0.2 0.2 0.8
	}
}
geometry IndexedFaceSet {
solid FALSE
coord Coordinate {
	point	[
		 20 79.8717 -10.9781,
		 20 77.6329 -21.7517,
		 20 73.9479 -32.1201,
		 20 68.8855 -41.8902,
		 20 62.5398 -50.8799,
		 20 55.0292 -58.9219,
		 20 46.4935 -65.8662,
		 20 37.0916 -71.5836,
		 20 26.9989 -75.9675,
		 20 16.4031 -78.9363,
		 20 5.50188 -80.4346,
		 20 -5.50188 -80.4346,
		 20 -16.4031 -78.9363,
		 20 -26.9989 -75.9675,
		 20 -37.0916 -71.5836,
		 20 -46.4935 -65.8662,
		 20 -55.0292 -58.9219,
		 20 -62.5398 -50.8799,
		 20 -68.8855 -41.8902,
		 20 -73.9479 -32.1201,
		 20 -77.6329 -21.7517,
		 20 -79.8717 -10.9781,
		 20 -80.6226 9.87309e-015,
		 80 -80.6226 9.87309e-015,
		 80 -79.8717 -10.9781,
		 80 -77.6329 -21.7517,
		 80 -73.9479 -32.1201,
		 80 -68.8855 -41.8902,
		 80 -62.5398 -50.8799,
		 80 -55.0292 -58.9219,
		 80 -46.4935 -65.8662,
		 80 -37.0916 -71.5836,
		 80 -26.9989 -75.9675,
		 80 -16.4031 -78.9363,
		 80 -5.50188 -80.4346,
		 80 5.50188 -80.4346,
		 80 16.4031 -78.9363,
		 80 26.9989 -75.9675,
		 80 37.0916 -71.5836,
		 80 46.4935 -65.8662,
		 80 55.0292 -58.9219,
		 80 62.5398 -50.8799,
		 80 68.8855 -41.8902,
		 80 73.9479 -32.1201,
		 80 77.6329 -21.7517,
		 80 79.8717 -10.9781,
		 80 80.6226 -9.13534e-014,
		 20 80.6226 -9.13534e-014,
		]
	}
normal Normal {
	vector	[
		0 0.990686 -0.136167,
		0 0.962917 -0.269797,
		0 0.917211 -0.398401,
		0 0.854419 -0.519584,
		0 0.775711 -0.631088,
		0 0.682553 -0.730836,
		0 0.57668 -0.81697,
		0 0.460065 -0.887885,
		0 0.33488 -0.942261,
		0 0.203456 -0.979084,
		0 0.0682424 -0.997669,
		-0 -0.0682424 -0.997669,
		-0 -0.203456 -0.979084,
		-0 -0.33488 -0.942261,
		-0 -0.460065 -0.887885,
		-0 -0.57668 -0.81697,
		-0 -0.682553 -0.730836,
		-0 -0.775711 -0.631088,
		-0 -0.854419 -0.519584,
		-0 -0.917211 -0.398401,
		-0 -0.962917 -0.269797,
		-0 -0.990686 -0.136167,
		0 -1 1.22461e-016,
		-0 -1 -3.21629e-016,
		-0 -0.990686 -0.136167,
		-0 -0.962917 -0.269797,
		-0 -0.917211 -0.398401,
		-0 -0.854419 -0.519584,
		-0 -0.775711 -0.631088,
		-0 -0.682553 -0.730836,
		-0 -0.57668 -0.81697,
		-0 -0.460065 -0.887885,
		-0 -0.33488 -0.942261,
		-0 -0.203456 -0.979084,
		-0 -0.0682424 -0.997669,
		0 0.0682424 -0.997669,
		0 0.203456 -0.979084,
		0 0.33488 -0.942261,
		0 0.460065 -0.887885,
		0 0.57668 -0.81697,
		0 0.682553 -0.730836,
		0 0.775711 -0.631088,
		0 0.854419 -0.519584,
		0 0.917211 -0.398401,
		0 0.962917 -0.269797,
		0 0.990686 -0.136167,
		0 1 -2.44921e-016,
		0 1 -2.44921e-016,
		]
	}
coordIndex [
 47,46,0,-1,
 46,45,0,-1,
 0,45,1,-1,
 45,44,1,-1,
 1,44,2,-1,
 44,43,2,-1,
 2,43,3,-1,
 43,42,3,-1,
 3,42,4,-1,
 42,41,4,-1,
 4,41,5,-1,
 41,40,5,-1,
 5,40,6,-1,
 40,39,6,-1,
 6,39,7,-1,
 39,38,7,-1,
 7,38,8,-1,
 38,37,8,-1,
 8,37,9,-1,
 37,36,9,-1,
 9,36,10,-1,
 36,35,10,-1,
 10,35,11,-1,
 35,34,11,-1,
 11,34,12,-1,
 34,33,12,-1,
 12,33,13,-1,
 33,32,13,-1,
 13,32,14,-1,
 32,31,14,-1,
 14,31,15,-1,
 31,30,15,-1,
 15,30,16,-1,
 30,29,16,-1,
 16,29,17,-1,
 29,28,17,-1,
 17,28,18,-1,
 28,27,18,-1,
 18,27,19,-1,
 27,26,19,-1,
 19,26,20,-1,
 26,25,20,-1,
 20,25,21,-1,
 25,24,21,-1,
 21,24,22,-1,
 24,23,22,-1,
]

}
}
Shape {
appearance Appearance {
material USE _material1
}
geometry IndexedFaceSet {
solid FALSE
coord Coordinate {
	point	[
		 20 -79.8717 10.9781,
		 20 -77.6329 21.7517,
		 20 -73.9479 32.1201,
		 20 -68.8855 41.8902,
		 20 -62.5398 50.8799,
		 20 -55.0292 58.9219,
		 20 -46.4935 65.8662,
		 20 -37.0916 71.5836,
		 20 -26.9989 75.9675,
		 20 -16.4031 78.9363,
		 20 -5.50188 80.4346,
		 20 5.50188 80.4346,
		 20 16.4031 78.9363,
		 20 26.9989 75.9675,
		 20 37.0916 71.5836,
		 20 46.4935 65.8662,
		 20 55.0292 58.9219,
		 20 62.5398 50.8799,
		 20 68.8855 41.8902,
		 20 73.9479 32.1201,
		 20 77.6329 21.7517,
		 20 79.8717 10.9781,
		 20 80.6226 -9.13534e-014,
		 80 80.6226 -9.13534e-014,
		 80 79.8717 10.9781,
		 80 77.6329 21.7517,
		 80 73.9479 32.1201,
		 80 68.8855 41.8902,
		 80 62.5398 50.8799,
		 80 55.0292 58.9219,
		 80 46.4935 65.8662,
		 80 37.0916 71.5836,
		 80 26.9989 75.9675,
		 80 16.4031 78.9363,
		 80 5.50188 80.4346,
		 80 -5.50188 80.4346,
		 80 -16.4031 78.9363,
		 80 -26.9989 75.9675,
		 80 -37.0916 71.5836,
		 80 -46.4935 65.8662,
		 80 -55.0292 58.9219,
		 80 -62.5398 50.8799,
		 80 -68.8855 41.8902,
		 80 -73.9479 32.1201,
		 80 -77.6329 21.7517,
		 80 -79.8717 10.9781,
		 80 -80.6226 9.87309e-015,
		 20 -80.6226 9.87309e-015,
		]
	}
normal Normal {
	vector	[
		0 -0.990686 0.136167,
		0 -0.962917 0.269797,
		0 -0.917211 0.398401,
		0 -0.854419 0.519584,
		0 -0.775711 0.631088,
		0 -0.682553 0.730836,
		0 -0.57668 0.81697,
		0 -0.460065 0.887885,
		0 -0.33488 0.942261,
		0 -0.203456 0.979084,
		0 -0.0682424 0.997669,
		0 0.0682424 0.997669,
		0 0.203456 0.979084,
		0 0.33488 0.942261,
		0 0.460065 0.887885,
		0 0.57668 0.81697,
		0 0.682553 0.730836,
		0 0.775711 0.631088,
		0 0.854419 0.519584,
		0 0.917211 0.398401,
		0 0.962917 0.269797,
		0 0.990686 0.136167,
		0 1 0,
		0 1 0,
		0 0.990686 0.136167,
		0 0.962917 0.269797,
		0 0.917211 0.398401,
		0 0.854419 0.519584,
		0 0.775711 0.631088,
		0 0.682553 0.730836,
		0 0.57668 0.81697,
		0 0.460065 0.887885,
		0 0.33488 0.942261,
		0 0.203456 0.979084,
		0 0.0682424 0.997669,
		0 -0.0682424 0.997669,
		0 -0.203456 0.979084,
		0 -0.33488 0.942261,
		0 -0.460065 0.887885,
		0 -0.57668 0.81697,
		0 -0.682553 0.730836,
		0 -0.775711 0.631088,
		0 -0.854419 0.519584,
		0 -0.917211 0.398401,
		0 -0.962917 0.269797,
		0 -0.990686 0.136167,
		0 -1 1.22461e-016,
		0 -1 1.22461e-016,
		]
	}
coordIndex [
 47,46,0,-1,
 46,45,0,-1,
 0,45,1,-1,
 45,44,1,-1,
 1,44,2,-1,
 44,43,2,-1,
 2,43,3,-1,
 43,42,3,-1,
 3,42,4,-1,
 42,41,4,-1,
 4,41,5,-1,
 41,40,5,-1,
 5,40,6,-1,
 40,39,6,-1,
 6,39,7,-1,
 39,38,7,-1,
 7,38,8,-1,
 38,37,8,-1,
 8,37,9,-1,
 37,36,9,-1,
 9,36,10,-1,
 36,35,10,-1,
 10,35,11,-1,
 35,34,11,-1,
 11,34,12,-1,
 34,33,12,-1,
 12,33,13,-1,
 33,32,13,-1,
 13,32,14,-1,
 32,31,14,-1,
 14,31,15,-1,
 31,30,15,-1,
 15,30,16,-1,
 30,29,16,-1,
 16,29,17,-1,
 29,28,17,-1,
 17,28,18,-1,
 28,27,18,-1,
 18,27,19,-1,
 27,26,19,-1,
 19,26,20,-1,
 26,25,20,-1,
 20,25,21,-1,
 25,24,21,-1,
 21,24,22,-1,
 24,23,22,-1,
]

}
}
Shape {
appearance Appearance {
material USE _material0
}
geometry IndexedFaceSet {
solid FALSE
coord Coordinate {
	point	[
		 0 -40 -40,
		 0 -10 -40,
		 0 -10 -10,
		 0 -40 -10,
		 0 11.7239 -59.4781,
		 0 2.06835 -60.5873,
		 0 -7.64033 -60.1392,
		 0 -17.1526 -58.1454,
		 0 -26.2241 -54.6571,
		 0 -34.6215 -49.764,
		 0 -42.129 -43.5918,
		 0 -48.5537 -36.2992,
		 0 -53.7305 -28.0736,
		 0 -57.5263 -19.1265,
		 0 -59.8435 -9.68773,
		 0 -60.6226 5.728e-015,
		 0 -59.8762 9.48346,
		 0 -57.6555 18.7334,
		 0 -54.0151 27.5221,
		 0 -49.0447 35.6331,
		 0 -42.8666 42.8666,
		 0 -35.6331 49.0447,
		 0 -27.5221 54.0151,
		 0 -18.7334 57.6555,
		 0 -9.48346 59.8762,
		 0 3.71194e-015 60.6226,
		 0 9.48346 59.8762,
		 0 18.7334 57.6555,
		 0 27.5221 54.0151,
		 0 35.6331 49.0447,
		 0 42.8666 42.8666,
		 0 49.0447 35.6331,
		 0 54.0151 27.5221,
		 0 57.6555 18.7334,
		 0 59.8762 9.48346,
		 0 60.6226 -1.65436e-014,
		 0 60.1984 -7.15914,
		 0 58.9317 -14.2181,
		 0 56.8402 -21.078,
		 0 54.0243 -15.0724,
		 0 49.887 -9.88765,
		 0 44.656 -5.80908,
		 0 38.619 -3.06094,
		 0 32.108 -1.79439,
		 0 25.481 -2.07907,
		 0 19.1025 -3.89933,
		 0 13.3234 -7.15506,
		 0 8.46146 -11.6672,
		 0 4.78408 -17.1876,
		 0 2.49351 -23.4127,
		 0 1.71573 -30,
		 0 2.3272 -35.8495,
		 0 4.13518 -41.446,
		 0 7.06148 -46.5476,
		 0 10.9796 -50.9338,
		 0 15.7201 -54.4148,
		 0 21.078 -56.8402,
		]
	}
coordIndex [
 7,8,1,-1,
 8,0,1,-1,
 8,9,0,-1,
 9,10,0,-1,
 23,3,22,-1,
 3,21,22,-1,
 3,14,21,-1,
 14,20,21,-1,
 25,26,24,-1,
 26,27,24,-1,
 24,27,23,-1,
 41,42,36,-1,
 42,43,36,-1,
 36,43,35,-1,
 39,40,37,-1,
 40,41,37,-1,
 37,41,36,-1,
 0,10,11,-1,
 0,11,12,-1,
 0,12,13,-1,
 0,13,14,-1,
 0,14,3,-1,
 2,3,23,-1,
 2,23,27,-1,
 2,27,46,-1,
 2,46,47,-1,
 2,47,48,-1,
 2,48,1,-1,
 7,1,52,-1,
 7,52,53,-1,
 7,53,54,-1,
 7,54,55,-1,
 7,55,56,-1,
 7,56,4,-1,
 7,4,6,-1,
 14,15,16,-1,
 14,16,17,-1,
 14,17,18,-1,
 14,18,19,-1,
 14,19,20,-1,
 44,45,27,-1,
 44,27,28,-1,
 44,28,29,-1,
 44,29,30,-1,
 44,30,31,-1,
 44,31,32,-1,
 44,32,33,-1,
 44,33,34,-1,
 44,34,35,-1,
 44,35,43,-1,
 1,48,49,-1,
 1,49,50,-1,
 1,50,51,-1,
 1,51,52,-1,
 46,27,45,-1,
 5,6,4,-1,
 39,37,38,-1,
]

}
}
Shape {
appearance Appearance {
material USE _material0
}
geometry IndexedFaceSet {
solid FALSE
coord Coordinate {
	point	[
		 2.62465 57.9118 -25.425,
		 4.92936 58.2843 -30,
		 85 58.2843 -30,
		 85 57.5751 -23.7062,
		 85 55.4832 -17.7279,
		 85 52.1135 -12.365,
		 85 47.635 -7.88647,
		 85 42.2721 -4.51675,
		 85 36.2938 -2.42487,
		 85 30 -1.71573,
		 85 23.7062 -2.42487,
		 85 17.7279 -4.51675,
		 85 12.365 -7.88647,
		 85 7.88647 -12.365,
		 85 4.51675 -17.7279,
		 85 2.42487 -23.7062,
		 85 1.71573 -30,
		 0 1.71573 -30,
		 0 2.49351 -23.4127,
		 0 4.78408 -17.1876,
		 0 8.46146 -11.6672,
		 0 13.3234 -7.15506,
		 0 19.1025 -3.89933,
		 0 25.481 -2.07907,
		 0 32.108 -1.79439,
		 0 38.619 -3.06094,
		 0 44.656 -5.80908,
		 0 49.887 -9.88765,
		 0 54.0243 -15.0724,
		 0 56.8402 -21.078,
		]
	}
normal Normal {
	vector	[
		-0 -0.986832 -0.161749,
		-0 -1 -0,
		-0 -1 -0,
		-0 -0.974928 -0.222521,
		-0 -0.900969 -0.433884,
		-0 -0.781832 -0.62349,
		-0 -0.62349 -0.781832,
		-0 -0.433884 -0.900969,
		-0 -0.222521 -0.974928,
		-0 -6.12303e-017 -1,
		-0 0.222521 -0.974928,
		-0 0.433884 -0.900969,
		-0 0.62349 -0.781832,
		-0 0.781832 -0.62349,
		-0 0.900969 -0.433884,
		-0 0.974928 -0.222521,
		-0 1 -1.22461e-016,
		-0 1 -1.22461e-016,
		-0 0.972501 -0.232898,
		-0 0.891517 -0.452986,
		-0 0.761502 -0.648162,
		-0 0.589607 -0.807691,
		-0 0.385284 -0.922798,
		-0 0.159772 -0.987154,
		-0 -0.0745274 -0.997219,
		-0 -0.304728 -0.952439,
		-0 -0.518169 -0.855278,
		-0 -0.703112 -0.711079,
		-0 -0.849386 -0.527772,
		-0 -0.948946 -0.315439,
		]
	}
coordIndex [
 14,15,18,-1,
 15,16,18,-1,
 18,16,17,-1,
 2,3,1,-1,
 3,0,1,-1,
 29,0,3,-1,
 29,3,4,-1,
 29,4,28,-1,
 19,14,18,-1,
 13,14,19,-1,
 20,13,19,-1,
 12,13,20,-1,
 21,12,20,-1,
 11,12,21,-1,
 22,11,21,-1,
 10,11,22,-1,
 23,10,22,-1,
 9,10,23,-1,
 24,9,23,-1,
 8,9,24,-1,
 25,8,24,-1,
 7,8,25,-1,
 26,7,25,-1,
 6,7,26,-1,
 27,6,26,-1,
 5,6,27,-1,
 28,5,27,-1,
 28,4,5,-1,
]

}
}
Shape {
appearance Appearance {
material USE _material0
}
geometry IndexedFaceSet {
solid FALSE
coord Coordinate {
	point	[
		 6.76809 57.9365 -34.4219,
		 8.23964 56.8709 -38.8292,
		 9.30325 55.0757 -43.0846,
		 9.93589 52.492 -47.1496,
		 10.0761 49.2344 -50.7374,
		 9.71836 45.4187 -53.7121,
		 8.87416 41.1842 -55.9791,
		 7.57473 36.7026 -57.4786,
		 5.86177 32.1324 -58.2038,
		 3.17989 26.4518 -58.0608,
		 0 21.078 -56.8402,
		 0 15.7201 -54.4148,
		 0 10.9796 -50.9338,
		 0 7.06148 -46.5476,
		 0 4.13518 -41.446,
		 0 2.3272 -35.8495,
		 0 1.71573 -30,
		 85 1.71573 -30,
		 85 2.42487 -36.2938,
		 85 4.51675 -42.2721,
		 85 7.88647 -47.635,
		 85 12.365 -52.1135,
		 85 17.7279 -55.4832,
		 85 23.7062 -57.5751,
		 85 30 -58.2843,
		 85 36.2938 -57.5751,
		 85 42.2721 -55.4832,
		 85 47.635 -52.1135,
		 85 52.1135 -47.635,
		 85 55.4832 -42.2721,
		 85 57.5751 -36.2938,
		 85 58.2843 -30,
		 4.92936 58.2843 -30,
		]
	}
normal Normal {
	vector	[
		-0 -0.987704 0.156338,
		-0 -0.95003 0.312159,
		-0 -0.886561 0.462611,
		-0 -0.795213 0.60633,
		-0 -0.680038 0.733177,
		-0 -0.545132 0.83835,
		-0 -0.39542 0.9185,
		-0 -0.236972 0.971516,
		-0 -0.0753901 0.997154,
		0 0.125449 0.9921,
		0 0.315439 0.948946,
		0 0.504871 0.863195,
		0 0.672473 0.740122,
		0 0.810999 0.585047,
		0 0.91446 0.404677,
		0 0.978381 0.20681,
		-0 1 -1.22461e-016,
		-0 1 -1.22461e-016,
		0 0.974928 0.222521,
		0 0.900969 0.433884,
		0 0.781832 0.62349,
		0 0.62349 0.781832,
		0 0.433884 0.900969,
		0 0.222521 0.974928,
		0 1.83691e-016 1,
		-0 -0.222521 0.974928,
		-0 -0.433884 0.900969,
		-0 -0.62349 0.781832,
		-0 -0.781832 0.62349,
		-0 -0.900969 0.433884,
		-0 -0.974928 0.222521,
		-0 -1 2.44921e-016,
		-0 -1 2.44921e-016,
		]
	}
coordIndex [
 1,30,0,-1,
 30,31,0,-1,
 0,31,32,-1,
 1,2,29,-1,
 2,3,29,-1,
 29,3,28,-1,
 5,6,26,-1,
 6,7,26,-1,
 26,7,25,-1,
 14,15,18,-1,
 15,16,18,-1,
 18,16,17,-1,
 10,11,22,-1,
 10,22,23,-1,
 10,23,9,-1,
 1,29,30,-1,
 28,3,4,-1,
 4,27,28,-1,
 27,4,5,-1,
 5,26,27,-1,
 25,7,8,-1,
 8,24,25,-1,
 24,8,9,-1,
 9,23,24,-1,
 21,22,11,-1,
 12,21,11,-1,
 20,21,12,-1,
 13,20,12,-1,
 19,20,13,-1,
 14,19,13,-1,
 18,19,14,-1,
]

}
}
Shape {
appearance Appearance {
material USE _material0
}
geometry IndexedFaceSet {
solid FALSE
coord Coordinate {
	point	[
		 2.62465 57.9118 -25.425,
		 4.92936 58.2843 -30,
		 6.76809 57.9365 -34.4219,
		 8.23964 56.8709 -38.8292,
		 9.30325 55.0757 -43.0846,
		 9.93589 52.492 -47.1496,
		 10.0761 49.2344 -50.7374,
		 9.71836 45.4187 -53.7121,
		 8.87416 41.1842 -55.9791,
		 7.57473 36.7026 -57.4786,
		 5.86177 32.1324 -58.2038,
		 3.17989 26.4518 -58.0608,
		 0 21.078 -56.8402,
		 0 11.7239 -59.4781,
		 0 2.06835 -60.5873,
		 0 -7.64033 -60.1392,
		 0 -17.1526 -58.1454,
		 0 -26.2241 -54.6571,
		 0 -34.6215 -49.764,
		 0 -42.129 -43.5918,
		 0 -48.5537 -36.2992,
		 0 -53.7305 -28.0736,
		 0 -57.5263 -19.1265,
		 0 -59.8435 -9.68773,
		 0 -60.6226 5.728e-015,
		 20 -80.6226 9.87309e-015,
		 20 -79.8717 -10.9781,
		 20 -77.6329 -21.7517,
		 20 -73.9479 -32.1201,
		 20 -68.8855 -41.8902,
		 20 -62.5398 -50.8799,
		 20 -55.0292 -58.9219,
		 20 -46.4935 -65.8662,
		 20 -37.0916 -71.5836,
		 20 -26.9989 -75.9675,
		 20 -16.4031 -78.9363,
		 20 -5.50188 -80.4346,
		 20 5.50188 -80.4346,
		 20 16.4031 -78.9363,
		 20 26.9989 -75.9675,
		 20 37.0916 -71.5836,
		 20 46.4935 -65.8662,
		 20 55.0292 -58.9219,
		 20 62.5398 -50.8799,
		 20 68.8855 -41.8902,
		 20 73.9479 -32.1201,
		 20 77.6329 -21.7517,
		 20 79.8717 -10.9781,
		 20 80.6226 -9.13534e-014,
		 0 60.6226 -1.65436e-014,
		 0 60.1984 -7.15914,
		 0 58.9317 -14.2181,
		 0 56.8402 -21.078,
		]
	}
normal Normal {
	vector	[
		-0.707107 0.647457 -0.284253,
		-0.707107 0.628711 -0.323609,
		-0.707107 0.607907 -0.361177,
		-0.707107 0.583975 -0.398715,
		-0.707107 0.556939 -0.435682,
		-0.707107 0.526052 -0.472513,
		-0.707107 0.492427 -0.50746,
		-0.707107 0.456574 -0.539945,
		-0.707107 0.419036 -0.569569,
		-0.707107 0.380552 -0.59597,
		-0.707107 0.34175 -0.619037,
		-0.707107 0.293158 -0.643474,
		-0.707107 0.245856 -0.662989,
		-0.707107 0.136748 -0.693758,
		-0.707107 0.0241254 -0.706695,
		-0.707107 -0.0891174 -0.701469,
		-0.707107 -0.20007 -0.678212,
		-0.707107 -0.30588 -0.637525,
		-0.707107 -0.403828 -0.580451,
		-0.707107 -0.491396 -0.508458,
		-0.707107 -0.566335 -0.423397,
		-0.707107 -0.626717 -0.327453,
		-0.707107 -0.670992 -0.223093,
		-0.707107 -0.69802 -0.112999,
		-0.707107 -0.707107 2.53232e-016,
		-0.707107 -0.707107 -7.98349e-017,
		-0.707107 -0.700521 -0.0962844,
		-0.707107 -0.680885 -0.190775,
		-0.707107 -0.648566 -0.281712,
		-0.707107 -0.604166 -0.367401,
		-0.707107 -0.548511 -0.446247,
		-0.707107 -0.482638 -0.516779,
		-0.707107 -0.407775 -0.577685,
		-0.707107 -0.325315 -0.62783,
		-0.707107 -0.236796 -0.666279,
		-0.707107 -0.143865 -0.692317,
		-0.707107 -0.0482547 -0.705458,
		-0.707107 0.0482547 -0.705458,
		-0.707107 0.143865 -0.692317,
		-0.707107 0.236796 -0.666279,
		-0.707107 0.325315 -0.62783,
		-0.707107 0.407775 -0.577685,
		-0.707107 0.482638 -0.516779,
		-0.707107 0.548511 -0.446247,
		-0.707107 0.604166 -0.367401,
		-0.707107 0.648566 -0.281712,
		-0.707107 0.680885 -0.190775,
		-0.707107 0.700521 -0.0962844,
		-0.707107 0.707107 -3.01879e-016,
		-0.707107 0.707107 -3.01879e-016,
		-0.707107 0.702159 -0.0835048,
		-0.707107 0.687384 -0.165841,
		-0.707107 0.662989 -0.245856,
		]
	}
coordIndex [
 49,48,50,-1,
 48,47,50,-1,
 50,47,51,-1,
 39,12,40,-1,
 12,11,40,-1,
 40,11,10,-1,
 45,0,46,-1,
 0,52,46,-1,
 46,52,51,-1,
 42,6,43,-1,
 6,5,43,-1,
 43,5,4,-1,
 24,26,25,-1,
 24,23,26,-1,
 1,45,2,-1,
 1,0,45,-1,
 23,27,26,-1,
 22,28,27,-1,
 22,27,23,-1,
 21,29,28,-1,
 21,28,22,-1,
 20,30,29,-1,
 20,29,21,-1,
 19,31,30,-1,
 19,30,20,-1,
 18,33,32,-1,
 18,32,19,-1,
 19,32,31,-1,
 17,34,33,-1,
 17,33,18,-1,
 16,35,34,-1,
 16,34,17,-1,
 15,36,35,-1,
 15,35,16,-1,
 14,37,36,-1,
 14,36,15,-1,
 13,38,37,-1,
 13,37,14,-1,
 12,39,13,-1,
 13,39,38,-1,
 10,41,40,-1,
 8,42,41,-1,
 8,41,9,-1,
 7,6,42,-1,
 4,44,43,-1,
 2,45,44,-1,
 2,44,3,-1,
 51,47,46,-1,
 10,9,41,-1,
 8,7,42,-1,
 44,4,3,-1,
]

}
}
Shape {
appearance Appearance {
material USE _material0
}
geometry IndexedFaceSet {
solid FALSE
coord Coordinate {
	point	[
		 20 79.8717 10.9781,
		 20 77.6329 21.7517,
		 20 73.9479 32.1201,
		 20 68.8855 41.8902,
		 20 62.5398 50.8799,
		 20 55.0292 58.9219,
		 20 46.4935 65.8662,
		 20 37.0916 71.5836,
		 20 26.9989 75.9675,
		 20 16.4031 78.9363,
		 20 5.50188 80.4346,
		 20 -5.50188 80.4346,
		 20 -16.4031 78.9363,
		 20 -26.9989 75.9675,
		 20 -37.0916 71.5836,
		 20 -46.4935 65.8662,
		 20 -55.0292 58.9219,
		 20 -62.5398 50.8799,
		 20 -68.8855 41.8902,
		 20 -73.9479 32.1201,
		 20 -77.6329 21.7517,
		 20 -79.8717 10.9781,
		 20 -80.6226 9.87309e-015,
		 0 -60.6226 5.728e-015,
		 0 -59.8762 9.48346,
		 0 -57.6555 18.7334,
		 0 -54.0151 27.5221,
		 0 -49.0447 35.6331,
		 0 -42.8666 42.8666,
		 0 -35.6331 49.0447,
		 0 -27.5221 54.0151,
		 0 -18.7334 57.6555,
		 0 -9.48346 59.8762,
		 0 3.71194e-015 60.6226,
		 0 9.48346 59.8762,
		 0 18.7334 57.6555,
		 0 27.5221 54.0151,
		 0 35.6331 49.0447,
		 0 42.8666 42.8666,
		 0 49.0447 35.6331,
		 0 54.0151 27.5221,
		 0 57.6555 18.7334,
		 0 59.8762 9.48346,
		 0 60.6226 -1.65436e-014,
		 20 80.6226 -9.13534e-014,
		]
	}
normal Normal {
	vector	[
		-0.707107 0.700521 0.0962844,
		-0.707107 0.680885 0.190775,
		-0.707107 0.648566 0.281712,
		-0.707107 0.604166 0.367401,
		-0.707107 0.548511 0.446247,
		-0.707107 0.482638 0.516779,
		-0.707107 0.407775 0.577685,
		-0.707107 0.325315 0.62783,
		-0.707107 0.236796 0.666279,
		-0.707107 0.143865 0.692317,
		-0.707107 0.0482547 0.705458,
		-0.707107 -0.0482547 0.705458,
		-0.707107 -0.143865 0.692317,
		-0.707107 -0.236796 0.666279,
		-0.707107 -0.325315 0.62783,
		-0.707107 -0.407775 0.577685,
		-0.707107 -0.482638 0.516779,
		-0.707107 -0.548511 0.446247,
		-0.707107 -0.604166 0.367401,
		-0.707107 -0.648566 0.281712,
		-0.707107 -0.680885 0.190775,
		-0.707107 -0.700521 0.0962844,
		-0.707107 -0.707107 -2.27911e-016,
		-0.707107 -0.707107 -2.27911e-016,
		-0.707107 -0.698401 0.110616,
		-0.707107 -0.672499 0.218508,
		-0.707107 -0.630037 0.32102,
		-0.707107 -0.572061 0.415627,
		-0.707107 -0.5 0.5,
		-0.707107 -0.415627 0.572061,
		-0.707107 -0.32102 0.630037,
		-0.707107 -0.218508 0.672499,
		-0.707107 -0.110616 0.698401,
		-0.707107 4.28114e-017 0.707107,
		-0.707107 0.110616 0.698401,
		-0.707107 0.218508 0.672499,
		-0.707107 0.32102 0.630037,
		-0.707107 0.415627 0.572061,
		-0.707107 0.5 0.5,
		-0.707107 0.572061 0.415627,
		-0.707107 0.630037 0.32102,
		-0.707107 0.672499 0.218508,
		-0.707107 0.698401 0.110616,
		-0.707107 0.707107 -3.35383e-016,
		-0.707107 0.707107 -3.35383e-016,
		]
	}
coordIndex [
 43,0,44,-1,
 43,42,0,-1,
 23,21,24,-1,
 23,22,21,-1,
 42,1,0,-1,
 41,2,1,-1,
 41,1,42,-1,
 40,3,2,-1,
 40,2,41,-1,
 39,4,3,-1,
 39,3,40,-1,
 38,5,4,-1,
 38,4,39,-1,
 37,6,5,-1,
 37,5,38,-1,
 36,8,7,-1,
 36,7,37,-1,
 37,7,6,-1,
 35,9,8,-1,
 35,8,36,-1,
 34,10,9,-1,
 34,9,35,-1,
 33,11,10,-1,
 33,10,34,-1,
 32,12,11,-1,
 32,11,33,-1,
 31,13,12,-1,
 31,12,32,-1,
 30,14,13,-1,
 30,13,31,-1,
 29,16,15,-1,
 29,15,30,-1,
 30,15,14,-1,
 28,17,16,-1,
 28,16,29,-1,
 27,18,17,-1,
 27,17,28,-1,
 26,19,18,-1,
 26,18,27,-1,
 25,20,19,-1,
 25,19,26,-1,
 24,21,20,-1,
 24,20,25,-1,
]

}
}
Shape {
appearance Appearance {
material USE _material0
}
geometry IndexedFaceSet {
solid FALSE
coord Coordinate {
	point	[
		 85 -40 -40,
		 85 -10 -40,
		 85 -10 -10,
		 85 -40 -10,
		 85 57.5751 -23.7062,
		 85 55.4832 -17.7279,
		 85 52.1135 -12.365,
		 85 47.635 -7.88647,
		 85 42.2721 -4.51675,
		 85 36.2938 -2.42487,
		 85 30 -1.71573,
		 85 23.7062 -2.42487,
		 85 17.7279 -4.51675,
		 85 12.365 -7.88647,
		 85 7.88647 -12.365,
		 85 4.51675 -17.7279,
		 85 2.42487 -23.7062,
		 85 1.71573 -30,
		 85 2.42487 -36.2938,
		 85 4.51675 -42.2721,
		 85 7.88647 -47.635,
		 85 12.365 -52.1135,
		 85 17.7279 -55.4832,
		 85 23.7062 -57.5751,
		 85 30 -58.2843,
		 85 36.2938 -57.5751,
		 85 42.2721 -55.4832,
		 85 47.635 -52.1135,
		 85 52.1135 -47.635,
		 85 55.4832 -42.2721,
		 85 57.5751 -36.2938,
		 85 58.2843 -30,
		 85 74.8529 -10.7622,
		 85 72.5593 -21.3053,
		 85 68.7887 -31.4148,
		 85 63.6178 -40.8847,
		 85 57.1517 -49.5223,
		 85 49.5223 -57.1517,
		 85 40.8847 -63.6178,
		 85 31.4148 -68.7887,
		 85 21.3053 -72.5593,
		 85 10.7622 -74.8529,
		 85 -1.38912e-014 -75.6226,
		 85 -10.7622 -74.8529,
		 85 -21.3053 -72.5593,
		 85 -31.4148 -68.7887,
		 85 -40.8847 -63.6178,
		 85 -49.5223 -57.1517,
		 85 -57.1517 -49.5223,
		 85 -63.6178 -40.8847,
		 85 -68.7887 -31.4148,
		 85 -72.5593 -21.3053,
		 85 -74.8529 -10.7622,
		 85 -75.6226 -5.98545e-014,
		 85 -74.8529 10.7622,
		 85 -72.5593 21.3053,
		 85 -68.7887 31.4148,
		 85 -63.6178 40.8847,
		 85 -57.1517 49.5223,
		 85 -49.5223 57.1517,
		 85 -40.8847 63.6178,
		 85 -31.4148 68.7887,
		 85 -21.3053 72.5593,
		 85 -10.7622 74.8529,
		 85 -1.21612e-014 75.6226,
		 85 10.7622 74.8529,
		 85 21.3053 72.5593,
		 85 31.4148 68.7887,
		 85 40.8847 63.6178,
		 85 49.5223 57.1517,
		 85 57.1517 49.5223,
		 85 63.6178 40.8847,
		 85 68.7887 31.4148,
		 85 72.5593 21.3053,
		 85 74.8529 10.7622,
		 85 75.6226 -2.04705e-014,
		]
	}
coordIndex [
 61,60,62,-1,
 60,3,62,-1,
 62,3,2,-1,
 11,66,12,-1,
 66,62,12,-1,
 12,62,13,-1,
 62,2,13,-1,
 13,2,14,-1,
 40,39,24,-1,
 39,38,24,-1,
 24,38,25,-1,
 38,37,25,-1,
 25,37,26,-1,
 62,66,63,-1,
 66,65,63,-1,
 63,65,64,-1,
 75,9,32,-1,
 9,8,32,-1,
 32,8,7,-1,
 5,33,6,-1,
 33,32,6,-1,
 6,32,7,-1,
 33,4,34,-1,
 4,31,34,-1,
 34,31,35,-1,
 31,30,35,-1,
 35,30,29,-1,
 35,29,36,-1,
 29,28,36,-1,
 36,28,37,-1,
 28,27,37,-1,
 37,27,26,-1,
 0,3,52,-1,
 0,52,51,-1,
 0,51,50,-1,
 0,50,49,-1,
 0,49,47,-1,
 0,47,46,-1,
 0,46,45,-1,
 0,45,44,-1,
 0,44,1,-1,
 53,52,3,-1,
 53,3,60,-1,
 53,60,59,-1,
 53,59,58,-1,
 53,58,57,-1,
 53,57,56,-1,
 53,56,55,-1,
 53,55,54,-1,
 44,43,41,-1,
 44,41,40,-1,
 44,40,23,-1,
 44,23,22,-1,
 44,22,21,-1,
 44,21,20,-1,
 44,20,19,-1,
 44,19,1,-1,
 1,19,18,-1,
 1,18,17,-1,
 1,17,16,-1,
 1,16,15,-1,
 1,15,14,-1,
 1,14,2,-1,
 10,9,75,-1,
 10,75,74,-1,
 10,74,73,-1,
 10,73,72,-1,
 10,72,71,-1,
 10,71,70,-1,
 10,70,69,-1,
 10,69,68,-1,
 10,68,67,-1,
 10,67,66,-1,
 10,66,11,-1,
 40,24,23,-1,
 49,48,47,-1,
 41,43,42,-1,
 5,4,33,-1,
]

}
}
Shape {
appearance Appearance {
material USE _material0
}
geometry IndexedFaceSet {
solid FALSE
coord Coordinate {
	point	[
		 84.3301 77.3949 -10.6377,
		 82.5 79.208 -10.8869,
		 84.3301 75.2256 -21.0772,
		 82.5 76.9878 -21.571,
		 84.3301 71.6549 -31.1241,
		 82.5 73.3335 -31.8532,
		 84.3301 66.7494 -40.5912,
		 82.5 68.3131 -41.5421,
		 84.3301 60.6006 -49.3022,
		 82.5 62.0202 -50.4572,
		 84.3301 53.3228 -57.0948,
		 82.5 54.572 -58.4323,
		 84.3301 45.0518 -63.8238,
		 82.5 46.1072 -65.319,
		 84.3301 35.9415 -69.3639,
		 82.5 36.7834 -70.9888,
		 84.3301 26.1617 -73.6119,
		 82.5 26.7745 -75.3363,
		 84.3301 15.8945 -76.4886,
		 82.5 16.2669 -78.2804,
		 84.3301 5.33127 -77.9405,
		 82.5 5.45617 -79.7663,
		 84.3301 -5.33127 -77.9405,
		 82.5 -5.45617 -79.7663,
		 84.3301 -15.8945 -76.4886,
		 82.5 -16.2669 -78.2804,
		 84.3301 -26.1617 -73.6119,
		 82.5 -26.7745 -75.3363,
		 84.3301 -35.9415 -69.3639,
		 82.5 -36.7834 -70.9888,
		 84.3301 -45.0518 -63.8238,
		 82.5 -46.1072 -65.319,
		 84.3301 -53.3228 -57.0948,
		 82.5 -54.572 -58.4323,
		 84.3301 -60.6006 -49.3022,
		 82.5 -62.0202 -50.4572,
		 84.3301 -66.7494 -40.5912,
		 82.5 -68.3131 -41.5421,
		 84.3301 -71.6549 -31.1241,
		 82.5 -73.3335 -31.8532,
		 84.3301 -75.2256 -21.0772,
		 82.5 -76.9878 -21.571,
		 84.3301 -77.3949 -10.6377,
		 82.5 -79.208 -10.8869,
		 85 -74.8529 -10.7622,
		 85 -72.5593 -21.3053,
		 85 -68.7887 -31.4148,
		 85 -63.6178 -40.8847,
		 85 -57.1517 -49.5223,
		 85 -49.5223 -57.1517,
		 85 -40.8847 -63.6178,
		 85 -31.4148 -68.7887,
		 85 -21.3053 -72.5593,
		 85 -10.7622 -74.8529,
		 85 -1.38912e-014 -75.6226,
		 85 10.7622 -74.8529,
		 85 21.3053 -72.5593,
		 85 31.4148 -68.7887,
		 85 40.8847 -63.6178,
		 85 49.5223 -57.1517,
		 85 57.1517 -49.5223,
		 85 63.6178 -40.8847,
		 85 68.7887 -31.4148,
		 85 72.5593 -21.3053,
		 85 74.8529 -10.7622,
		 85 75.6226 -2.04705e-014,
		 84.3301 78.1226 0,
		 82.5 79.9527 0,
		 80 80.6226 -9.13534e-014,
		 80 79.8717 -10.9781,
		 80 77.6329 -21.7517,
		 80 73.9479 -32.1201,
		 80 68.8855 -41.8902,
		 80 62.5398 -50.8799,
		 80 55.0292 -58.9219,
		 80 46.4935 -65.8662,
		 80 37.0916 -71.5836,
		 80 26.9989 -75.9675,
		 80 16.4031 -78.9363,
		 80 5.50188 -80.4346,
		 80 -5.50188 -80.4346,
		 80 -16.4031 -78.9363,
		 80 -26.9989 -75.9675,
		 80 -37.0916 -71.5836,
		 80 -46.4935 -65.8662,
		 80 -55.0292 -58.9219,
		 80 -62.5398 -50.8799,
		 80 -68.8855 -41.8902,
		 80 -73.9479 -32.1201,
		 80 -77.6329 -21.7517,
		 80 -79.8717 -10.9781,
		 80 -80.6226 9.87309e-015,
		 82.5 -79.9527 1.42109e-014,
		 84.3301 -78.1226 1.42109e-014,
		 85 -75.6226 -5.98545e-014,
		]
	}
normal Normal {
	vector	[
		0.866025 0.495343 -0.0680833,
		0.5 0.857959 -0.117924,
		0.866025 0.481459 -0.134898,
		0.5 0.833911 -0.233651,
		0.866025 0.458606 -0.199201,
		0.5 0.794328 -0.345025,
		0.866025 0.42721 -0.259792,
		0.5 0.739949 -0.449973,
		0.866025 0.387856 -0.315544,
		0.5 0.671786 -0.546538,
		0.866025 0.341277 -0.365418,
		0.5 0.591108 -0.632923,
		0.866025 0.28834 -0.408485,
		0.5 0.49942 -0.707517,
		0.866025 0.230033 -0.443943,
		0.5 0.398428 -0.768931,
		0.866025 0.16744 -0.47113,
		0.5 0.290014 -0.816022,
		0.866025 0.101728 -0.489542,
		0.5 0.176198 -0.847912,
		0.866025 0.0341212 -0.498834,
		0.5 0.0590997 -0.864007,
		0.866025 -0.0341212 -0.498834,
		0.5 -0.0590997 -0.864007,
		0.866025 -0.101728 -0.489542,
		0.5 -0.176198 -0.847912,
		0.866025 -0.16744 -0.47113,
		0.5 -0.290014 -0.816022,
		0.866025 -0.230033 -0.443943,
		0.5 -0.398428 -0.768931,
		0.866025 -0.28834 -0.408485,
		0.5 -0.49942 -0.707517,
		0.866025 -0.341277 -0.365418,
		0.5 -0.591108 -0.632923,
		0.866025 -0.387856 -0.315544,
		0.5 -0.671786 -0.546538,
		0.866025 -0.42721 -0.259792,
		0.5 -0.739949 -0.449973,
		0.866025 -0.458606 -0.199201,
		0.5 -0.794328 -0.345025,
		0.866025 -0.481459 -0.134898,
		0.5 -0.833911 -0.233651,
		0.866025 -0.495343 -0.0680833,
		0.5 -0.857959 -0.117924,
		1 -6.06071e-017 -8.71398e-018,
		1 -5.87501e-017 -1.72506e-017,
		1 -5.56971e-017 -2.5436e-017,
		1 -5.15102e-017 -3.31036e-017,
		1 -4.62748e-017 -4.00973e-017,
		1 -4.00973e-017 -4.62748e-017,
		1 -3.31036e-017 -5.15102e-017,
		1 -2.5436e-017 -5.56971e-017,
		1 -1.72506e-017 -5.87501e-017,
		1 -8.71398e-018 -6.06071e-017,
		1 -4.00593e-032 -6.12303e-017,
		1 8.71398e-018 -6.06071e-017,
		1 1.72506e-017 -5.87501e-017,
		1 2.5436e-017 -5.56971e-017,
		1 3.31036e-017 -5.15102e-017,
		1 4.00973e-017 -4.62748e-017,
		1 4.62748e-017 -4.00973e-017,
		1 5.15102e-017 -3.31036e-017,
		1 5.56971e-017 -2.5436e-017,
		1 5.87501e-017 -1.72506e-017,
		1 6.06071e-017 -8.71398e-018,
		1 6.12303e-017 -4.93038e-032,
		0.866025 0.5 -4.16334e-016,
		0.5 0.866025 -7.77156e-016,
		0 1 -1.72085e-015,
		0 0.990686 -0.136167,
		0 0.962917 -0.269797,
		0 0.917211 -0.398401,
		0 0.854419 -0.519584,
		0 0.775711 -0.631088,
		0 0.682553 -0.730836,
		0 0.57668 -0.81697,
		0 0.460065 -0.887885,
		0 0.33488 -0.942261,
		0 0.203456 -0.979084,
		0 0.0682424 -0.997669,
		0 -0.0682424 -0.997669,
		0 -0.203456 -0.979084,
		0 -0.33488 -0.942261,
		0 -0.460065 -0.887885,
		0 -0.57668 -0.81697,
		0 -0.682553 -0.730836,
		0 -0.775711 -0.631088,
		0 -0.854419 -0.519584,
		0 -0.917211 -0.398401,
		0 -0.962917 -0.269797,
		0 -0.990686 -0.136167,
		0 -1 6.66134e-016,
		0.5 -0.866025 6.10623e-016,
		0.866025 -0.5 3.33067e-016,
		1 -6.12303e-017 4.00593e-032,
		]
	}
coordIndex [
 69,68,1,-1,
 68,67,1,-1,
 1,67,0,-1,
 67,66,0,-1,
 0,66,65,-1,
 91,90,92,-1,
 90,43,92,-1,
 92,43,93,-1,
 43,42,93,-1,
 93,42,94,-1,
 90,89,43,-1,
 89,41,43,-1,
 43,41,42,-1,
 41,40,42,-1,
 42,40,44,-1,
 89,88,41,-1,
 88,39,41,-1,
 41,39,40,-1,
 39,38,40,-1,
 40,38,45,-1,
 88,87,39,-1,
 87,37,39,-1,
 39,37,38,-1,
 37,36,38,-1,
 38,36,46,-1,
 87,86,37,-1,
 86,35,37,-1,
 37,35,36,-1,
 35,34,36,-1,
 36,34,47,-1,
 86,85,35,-1,
 85,33,35,-1,
 35,33,34,-1,
 33,32,34,-1,
 34,32,48,-1,
 85,84,33,-1,
 84,31,33,-1,
 33,31,32,-1,
 31,30,32,-1,
 32,30,49,-1,
 84,83,31,-1,
 83,29,31,-1,
 31,29,30,-1,
 29,28,30,-1,
 30,28,50,-1,
 83,82,29,-1,
 82,27,29,-1,
 29,27,28,-1,
 27,26,28,-1,
 28,26,51,-1,
 82,81,27,-1,
 81,25,27,-1,
 27,25,26,-1,
 25,24,26,-1,
 26,24,52,-1,
 81,80,25,-1,
 80,23,25,-1,
 25,23,24,-1,
 23,22,24,-1,
 24,22,53,-1,
 80,79,23,-1,
 79,21,23,-1,
 23,21,22,-1,
 21,20,22,-1,
 22,20,54,-1,
 79,78,21,-1,
 78,19,21,-1,
 21,19,20,-1,
 19,18,20,-1,
 20,18,55,-1,
 78,77,19,-1,
 77,17,19,-1,
 19,17,18,-1,
 17,16,18,-1,
 18,16,56,-1,
 77,76,17,-1,
 76,15,17,-1,
 17,15,16,-1,
 15,14,16,-1,
 16,14,57,-1,
 76,75,15,-1,
 75,13,15,-1,
 15,13,14,-1,
 13,12,14,-1,
 14,12,58,-1,
 75,74,13,-1,
 74,11,13,-1,
 13,11,12,-1,
 11,10,12,-1,
 12,10,59,-1,
 74,73,11,-1,
 73,9,11,-1,
 11,9,10,-1,
 9,8,10,-1,
 10,8,60,-1,
 73,72,9,-1,
 72,7,9,-1,
 9,7,8,-1,
 7,6,8,-1,
 8,6,61,-1,
 72,71,7,-1,
 71,5,7,-1,
 7,5,6,-1,
 5,4,6,-1,
 6,4,62,-1,
 71,70,5,-1,
 70,3,5,-1,
 5,3,4,-1,
 3,2,4,-1,
 4,2,63,-1,
 70,69,3,-1,
 69,1,3,-1,
 3,1,2,-1,
 1,0,2,-1,
 2,0,64,-1,
 65,64,0,-1,
 94,42,44,-1,
 40,45,44,-1,
 38,46,45,-1,
 36,47,46,-1,
 34,48,47,-1,
 32,49,48,-1,
 30,50,49,-1,
 28,51,50,-1,
 26,52,51,-1,
 24,53,52,-1,
 22,54,53,-1,
 20,55,54,-1,
 18,56,55,-1,
 16,57,56,-1,
 14,58,57,-1,
 12,59,58,-1,
 10,60,59,-1,
 8,61,60,-1,
 6,62,61,-1,
 4,63,62,-1,
 2,64,63,-1,
]

}
}
Shape {
appearance Appearance {
material USE _material0
}
geometry IndexedFaceSet {
solid FALSE
coord Coordinate {
	point	[
		 84.3301 -77.3949 10.6377,
		 82.5 -79.208 10.8869,
		 84.3301 -75.2256 21.0772,
		 82.5 -76.9878 21.571,
		 84.3301 -71.6549 31.1241,
		 82.5 -73.3335 31.8532,
		 84.3301 -66.7494 40.5912,
		 82.5 -68.3131 41.5421,
		 84.3301 -60.6006 49.3022,
		 82.5 -62.0202 50.4572,
		 84.3301 -53.3228 57.0948,
		 82.5 -54.572 58.4323,
		 84.3301 -45.0518 63.8238,
		 82.5 -46.1072 65.319,
		 84.3301 -35.9415 69.3639,
		 82.5 -36.7834 70.9888,
		 84.3301 -26.1617 73.6119,
		 82.5 -26.7745 75.3363,
		 84.3301 -15.8945 76.4886,
		 82.5 -16.2669 78.2804,
		 84.3301 -5.33127 77.9405,
		 82.5 -5.45617 79.7663,
		 84.3301 5.33127 77.9405,
		 82.5 5.45617 79.7663,
		 84.3301 15.8945 76.4886,
		 82.5 16.2669 78.2804,
		 84.3301 26.1617 73.6119,
		 82.5 26.7745 75.3363,
		 84.3301 35.9415 69.3639,
		 82.5 36.7834 70.9888,
		 84.3301 45.0518 63.8238,
		 82.5 46.1072 65.319,
		 84.3301 53.3228 57.0948,
		 82.5 54.572 58.4323,
		 84.3301 60.6006 49.3022,
		 82.5 62.0202 50.4572,
		 84.3301 66.7494 40.5912,
		 82.5 68.3131 41.5421,
		 84.3301 71.6549 31.1241,
		 82.5 73.3335 31.8532,
		 84.3301 75.2256 21.0772,
		 82.5 76.9878 21.571,
		 84.3301 77.3949 10.6377,
		 82.5 79.208 10.8869,
		 85 74.8529 10.7622,
		 85 72.5593 21.3053,
		 85 68.7887 31.4148,
		 85 63.6178 40.8847,
		 85 57.1517 49.5223,
		 85 49.5223 57.1517,
		 85 40.8847 63.6178,
		 85 31.4148 68.7887,
		 85 21.3053 72.5593,
		 85 10.7622 74.8529,
		 85 -1.21612e-014 75.6226,
		 85 -10.7622 74.8529,
		 85 -21.3053 72.5593,
		 85 -31.4148 68.7887,
		 85 -40.8847 63.6178,
		 85 -49.5223 57.1517,
		 85 -57.1517 49.5223,
		 85 -63.6178 40.8847,
		 85 -68.7887 31.4148,
		 85 -72.5593 21.3053,
		 85 -74.8529 10.7622,
		 85 -75.6226 -5.98545e-014,
		 84.3301 -78.1226 1.42109e-014,
		 82.5 -79.9527 1.42109e-014,
		 80 -80.6226 9.87309e-015,
		 80 -79.8717 10.9781,
		 80 -77.6329 21.7517,
		 80 -73.9479 32.1201,
		 80 -68.8855 41.8902,
		 80 -62.5398 50.8799,
		 80 -55.0292 58.9219,
		 80 -46.4935 65.8662,
		 80 -37.0916 71.5836,
		 80 -26.9989 75.9675,
		 80 -16.4031 78.9363,
		 80 -5.50188 80.4346,
		 80 5.50188 80.4346,
		 80 16.4031 78.9363,
		 80 26.9989 75.9675,
		 80 37.0916 71.5836,
		 80 46.4935 65.8662,
		 80 55.0292 58.9219,
		 80 62.5398 50.8799,
		 80 68.8855 41.8902,
		 80 73.9479 32.1201,
		 80 77.6329 21.7517,
		 80 79.8717 10.9781,
		 80 80.6226 -9.13534e-014,
		 82.5 79.9527 0,
		 84.3301 78.1226 0,
		 85 75.6226 -2.04705e-014,
		]
	}
normal Normal {
	vector	[
		0.866025 -0.495343 0.0680833,
		0.5 -0.857959 0.117924,
		0.866025 -0.481459 0.134898,
		0.5 -0.833911 0.233651,
		0.866025 -0.458606 0.199201,
		0.5 -0.794328 0.345025,
		0.866025 -0.42721 0.259792,
		0.5 -0.739949 0.449973,
		0.866025 -0.387856 0.315544,
		0.5 -0.671786 0.546538,
		0.866025 -0.341277 0.365418,
		0.5 -0.591108 0.632923,
		0.866025 -0.28834 0.408485,
		0.5 -0.49942 0.707517,
		0.866025 -0.230033 0.443943,
		0.5 -0.398428 0.768931,
		0.866025 -0.16744 0.47113,
		0.5 -0.290014 0.816022,
		0.866025 -0.101728 0.489542,
		0.5 -0.176198 0.847912,
		0.866025 -0.0341212 0.498834,
		0.5 -0.0590997 0.864007,
		0.866025 0.0341212 0.498834,
		0.5 0.0590997 0.864007,
		0.866025 0.101728 0.489542,
		0.5 0.176198 0.847912,
		0.866025 0.16744 0.47113,
		0.5 0.290014 0.816022,
		0.866025 0.230033 0.443943,
		0.5 0.398428 0.768931,
		0.866025 0.28834 0.408485,
		0.5 0.49942 0.707517,
		0.866025 0.341277 0.365418,
		0.5 0.591108 0.632923,
		0.866025 0.387856 0.315544,
		0.5 0.671786 0.546538,
		0.866025 0.42721 0.259792,
		0.5 0.739949 0.449973,
		0.866025 0.458606 0.199201,
		0.5 0.794328 0.345025,
		0.866025 0.481459 0.134898,
		0.5 0.833911 0.233651,
		0.866025 0.495343 0.0680833,
		0.5 0.857959 0.117924,
		1 6.06071e-017 8.71398e-018,
		1 5.87501e-017 1.72506e-017,
		1 5.56971e-017 2.5436e-017,
		1 5.15102e-017 3.31036e-017,
		1 4.62748e-017 4.00973e-017,
		1 4.00973e-017 4.62748e-017,
		1 3.31036e-017 5.15102e-017,
		1 2.5436e-017 5.56971e-017,
		1 1.72506e-017 5.87501e-017,
		1 8.71398e-018 6.06071e-017,
		1 -1.2326e-032 6.12303e-017,
		1 -8.71398e-018 6.06071e-017,
		1 -1.72506e-017 5.87501e-017,
		1 -2.5436e-017 5.56971e-017,
		1 -3.31036e-017 5.15102e-017,
		1 -4.00973e-017 4.62748e-017,
		1 -4.62748e-017 4.00973e-017,
		1 -5.15102e-017 3.31036e-017,
		1 -5.56971e-017 2.5436e-017,
		1 -5.87501e-017 1.72506e-017,
		1 -6.06071e-017 8.71398e-018,
		1 -6.12303e-017 2.46519e-032,
		0.866025 -0.5 2.22045e-016,
		0.5 -0.866025 3.88578e-016,
		0 -1 3.88578e-016,
		0 -0.990686 0.136167,
		0 -0.962917 0.269797,
		0 -0.917211 0.398401,
		0 -0.854419 0.519584,
		0 -0.775711 0.631088,
		0 -0.682553 0.730836,
		0 -0.57668 0.81697,
		0 -0.460065 0.887885,
		0 -0.33488 0.942261,
		0 -0.203456 0.979084,
		0 -0.0682424 0.997669,
		0 0.0682424 0.997669,
		0 0.203456 0.979084,
		0 0.33488 0.942261,
		0 0.460065 0.887885,
		0 0.57668 0.81697,
		0 0.682553 0.730836,
		0 0.775711 0.631088,
		0 0.854419 0.519584,
		0 0.917211 0.398401,
		0 0.962917 0.269797,
		0 0.990686 0.136167,
		0 1 1.66533e-016,
		0.5 0.866025 2.22045e-016,
		0.866025 0.5 8.32667e-017,
		1 6.12303e-017 1.2326e-032,
		]
	}
coordIndex [
 69,68,1,-1,
 68,67,1,-1,
 1,67,0,-1,
 67,66,0,-1,
 0,66,65,-1,
 91,90,92,-1,
 90,43,92,-1,
 92,43,93,-1,
 43,42,93,-1,
 93,42,94,-1,
 90,89,43,-1,
 89,41,43,-1,
 43,41,42,-1,
 41,40,42,-1,
 42,40,44,-1,
 89,88,41,-1,
 88,39,41,-1,
 41,39,40,-1,
 39,38,40,-1,
 40,38,45,-1,
 88,87,39,-1,
 87,37,39,-1,
 39,37,38,-1,
 37,36,38,-1,
 38,36,46,-1,
 87,86,37,-1,
 86,35,37,-1,
 37,35,36,-1,
 35,34,36,-1,
 36,34,47,-1,
 86,85,35,-1,
 85,33,35,-1,
 35,33,34,-1,
 33,32,34,-1,
 34,32,48,-1,
 85,84,33,-1,
 84,31,33,-1,
 33,31,32,-1,
 31,30,32,-1,
 32,30,49,-1,
 84,83,31,-1,
 83,29,31,-1,
 31,29,30,-1,
 29,28,30,-1,
 30,28,50,-1,
 83,82,29,-1,
 82,27,29,-1,
 29,27,28,-1,
 27,26,28,-1,
 28,26,51,-1,
 82,81,27,-1,
 81,25,27,-1,
 27,25,26,-1,
 25,24,26,-1,
 26,24,52,-1,
 81,80,25,-1,
 80,23,25,-1,
 25,23,24,-1,
 23,22,24,-1,
 24,22,53,-1,
 80,79,23,-1,
 79,21,23,-1,
 23,21,22,-1,
 21,20,22,-1,
 22,20,54,-1,
 79,78,21,-1,
 78,19,21,-1,
 21,19,20,-1,
 19,18,20,-1,
 20,18,55,-1,
 78,77,19,-1,
 77,17,19,-1,
 19,17,18,-1,
 17,16,18,-1,
 18,16,56,-1,
 77,76,17,-1,
 76,15,17,-1,
 17,15,16,-1,
 15,14,16,-1,
 16,14,57,-1,
 76,75,15,-1,
 75,13,15,-1,
 15,13,14,-1,
 13,12,14,-1,
 14,12,58,-1,
 75,74,13,-1,
 74,11,13,-1,
 13,11,12,-1,
 11,10,12,-1,
 12,10,59,-1,
 74,73,11,-1,
 73,9,11,-1,
 11,9,10,-1,
 9,8,10,-1,
 10,8,60,-1,
 73,72,9,-1,
 72,7,9,-1,
 9,7,8,-1,
 7,6,8,-1,
 8,6,61,-1,
 72,71,7,-1,
 71,5,7,-1,
 7,5,6,-1,
 5,4,6,-1,
 6,4,62,-1,
 71,70,5,-1,
 70,3,5,-1,
 5,3,4,-1,
 3,2,4,-1,
 4,2,63,-1,
 70,69,3,-1,
 69,1,3,-1,
 3,1,2,-1,
 1,0,2,-1,
 2,0,64,-1,
 65,64,0,-1,
 94,42,44,-1,
 40,45,44,-1,
 38,46,45,-1,
 36,47,46,-1,
 34,48,47,-1,
 32,49,48,-1,
 30,50,49,-1,
 28,51,50,-1,
 26,52,51,-1,
 24,53,52,-1,
 22,54,53,-1,
 20,55,54,-1,
 18,56,55,-1,
 16,57,56,-1,
 14,58,57,-1,
 12,59,58,-1,
 10,60,59,-1,
 8,61,60,-1,
 6,62,61,-1,
 4,63,62,-1,
 2,64,63,-1,
]

}
}
Shape {
appearance Appearance {
material USE _material0
}
geometry IndexedFaceSet {
solid FALSE
coord Coordinate {
	point	[
		 85 -40 -40,
		 0 -40 -40,
		 0 -40 -10,
		 85 -40 -10,
		]
	}
coordIndex [
 2,3,1,-1,
 3,0,1,-1,
]

}
}
Shape {
appearance Appearance {
material USE _material0
}
geometry IndexedFaceSet {
solid FALSE
coord Coordinate {
	point	[
		 0 -40 -40,
		 0 -10 -40,
		 85 -10 -40,
		 85 -40 -40,
		]
	}
coordIndex [
 1,0,2,-1,
 0,3,2,-1,
]

}
}
Shape {
appearance Appearance {
material USE _material0
}
geometry IndexedFaceSet {
solid FALSE
coord Coordinate {
	point	[
		 85 -10 -10,
		 0 -10 -10,
		 0 -10 -40,
		 85 -10 -40,
		]
	}
coordIndex [
 2,3,1,-1,
 3,0,1,-1,
]

}
}
Shape {
appearance Appearance {
material USE _material0
}
geometry IndexedFaceSet {
solid FALSE
coord Coordinate {
	point	[
		 0 -10 -10,
		 0 -40 -10,
		 85 -40 -10,
		 85 -10 -10,
		]
	}
coordIndex [
 1,0,2,-1,
 0,3,2,-1,
]

}
}
Shape {
appearance Appearance {
	material DEF _material1 Material {
		emissiveColor 0 0 0
	}
}
geometry IndexedLineSet {
	coord Coordinate {
point	[
		 85 1.71573 -30,
		 85 2.42487 -36.2938,
		 85 4.51675 -42.2721,
		 85 7.88647 -47.635,
		 85 12.365 -52.1135,
		 85 17.7279 -55.4832,
		 85 23.7062 -57.5751,
		 85 30 -58.2843,
		 85 36.2938 -57.5751,
		 85 42.2721 -55.4832,
		 85 47.635 -52.1135,
		 85 52.1135 -47.635,
		 85 55.4832 -42.2721,
		 85 57.5751 -36.2938,
		 85 58.2843 -30,
		]
}
	coordIndex	[0 1 2 3 4 5 6 7 8 9 10 11 12 13 14  -1 ]
}
}
Shape {
appearance Appearance {
material USE _material1
}
geometry IndexedLineSet {
	coord Coordinate {
point	[
		 85 58.2843 -30,
		 85 57.5751 -23.7062,
		 85 55.4832 -17.7279,
		 85 52.1135 -12.365,
		 85 47.635 -7.88647,
		 85 42.2721 -4.51675,
		 85 36.2938 -2.42487,
		 85 30 -1.71573,
		 85 23.7062 -2.42487,
		 85 17.7279 -4.51675,
		 85 12.365 -7.88647,
		 85 7.88647 -12.365,
		 85 4.51675 -17.7279,
		 85 2.42487 -23.7062,
		 85 1.71573 -30,
		]
}
	coordIndex	[0 1 2 3 4 5 6 7 8 9 10 11 12 13 14  -1 ]
}
}
Shape {
appearance Appearance {
material USE _material1
}
geometry IndexedLineSet {
	coord Coordinate {
point	[
		 0 -10 -10,
		 85 -10 -10,
		]
}
	coordIndex	[0 1  -1 ]
}
}
Shape {
appearance Appearance {
material USE _material1
}
geometry IndexedLineSet {
	coord Coordinate {
point	[
		 0 -40 -10,
		 85 -40 -10,
		]
}
	coordIndex	[0 1  -1 ]
}
}
Shape {
appearance Appearance {
material USE _material1
}
geometry IndexedLineSet {
	coord Coordinate {
point	[
		 0 -10 -10,
		 0 -40 -10,
		]
}
	coordIndex	[0 1  -1 ]
}
}
Shape {
appearance Appearance {
material USE _material1
}
geometry IndexedLineSet {
	coord Coordinate {
point	[
		 85 -10 -10,
		 85 -40 -10,
		]
}
	coordIndex	[0 1  -1 ]
}
}
Shape {
appearance Appearance {
material USE _material1
}
geometry IndexedLineSet {
	coord Coordinate {
point	[
		 0 -10 -40,
		 85 -10 -40,
		]
}
	coordIndex	[0 1  -1 ]
}
}
Shape {
appearance Appearance {
material USE _material1
}
geometry IndexedLineSet {
	coord Coordinate {
point	[
		 0 -10 -40,
		 0 -10 -10,
		]
}
	coordIndex	[0 1  -1 ]
}
}
Shape {
appearance Appearance {
material USE _material1
}
geometry IndexedLineSet {
	coord Coordinate {
point	[
		 85 -10 -40,
		 85 -10 -10,
		]
}
	coordIndex	[0 1  -1 ]
}
}
Shape {
appearance Appearance {
material USE _material1
}
geometry IndexedLineSet {
	coord Coordinate {
point	[
		 0 -40 -40,
		 85 -40 -40,
		]
}
	coordIndex	[0 1  -1 ]
}
}
Shape {
appearance Appearance {
material USE _material1
}
geometry IndexedLineSet {
	coord Coordinate {
point	[
		 0 -40 -40,
		 0 -10 -40,
		]
}
	coordIndex	[0 1  -1 ]
}
}
Shape {
appearance Appearance {
material USE _material1
}
geometry IndexedLineSet {
	coord Coordinate {
point	[
		 85 -40 -40,
		 85 -10 -40,
		]
}
	coordIndex	[0 1  -1 ]
}
}
Shape {
appearance Appearance {
material USE _material1
}
geometry IndexedLineSet {
	coord Coordinate {
point	[
		 0 -40 -10,
		 0 -40 -40,
		]
}
	coordIndex	[0 1  -1 ]
}
}
Shape {
appearance Appearance {
material USE _material1
}
geometry IndexedLineSet {
	coord Coordinate {
point	[
		 85 -40 -10,
		 85 -40 -40,
		]
}
	coordIndex	[0 1  -1 ]
}
}
Shape {
appearance Appearance {
material USE _material1
}
geometry IndexedLineSet {
	coord Coordinate {
point	[
		 20 -80.6226 9.87309e-015,
		 20 -79.8717 10.9781,
		 20 -77.6329 21.7517,
		 20 -73.9479 32.1201,
		 20 -68.8855 41.8902,
		 20 -62.5398 50.8799,
		 20 -55.0292 58.9219,
		 20 -46.4935 65.8662,
		 20 -37.0916 71.5836,
		 20 -26.9989 75.9675,
		 20 -16.4031 78.9363,
		 20 -5.50188 80.4346,
		 20 5.50188 80.4346,
		 20 16.4031 78.9363,
		 20 26.9989 75.9675,
		 20 37.0916 71.5836,
		 20 46.4935 65.8662,
		 20 55.0292 58.9219,
		 20 62.5398 50.8799,
		 20 68.8855 41.8902,
		 20 73.9479 32.1201,
		 20 77.6329 21.7517,
		 20 79.8717 10.9781,
		 20 80.6226 -9.13534e-014,
		]
}
	coordIndex	[0 1 2 3 4 5 6 7 8 9 10 11 12 13 14 15 16 17 18 19 20 21 22 23  -1 ]
}
}
Shape {
appearance Appearance {
material USE _material1
}
geometry IndexedLineSet {
	coord Coordinate {
point	[
		 20 80.6226 -9.13534e-014,
		 20 79.8717 -10.9781,
		 20 77.6329 -21.7517,
		 20 73.9479 -32.1201,
		 20 68.8855 -41.8902,
		 20 62.5398 -50.8799,
		 20 55.0292 -58.9219,
		 20 46.4935 -65.8662,
		 20 37.0916 -71.5836,
		 20 26.9989 -75.9675,
		 20 16.4031 -78.9363,
		 20 5.50188 -80.4346,
		 20 -5.50188 -80.4346,
		 20 -16.4031 -78.9363,
		 20 -26.9989 -75.9675,
		 20 -37.0916 -71.5836,
		 20 -46.4935 -65.8662,
		 20 -55.0292 -58.9219,
		 20 -62.5398 -50.8799,
		 20 -68.8855 -41.8902,
		 20 -73.9479 -32.1201,
		 20 -77.6329 -21.7517,
		 20 -79.8717 -10.9781,
		 20 -80.6226 9.87309e-015,
		]
}
	coordIndex	[0 1 2 3 4 5 6 7 8 9 10 11 12 13 14 15 16 17 18 19 20 21 22 23  -1 ]
}
}
Shape {
appearance Appearance {
material USE _material1
}
geometry IndexedLineSet {
	coord Coordinate {
point	[
		 0 -60.6226 5.728e-015,
		 0 -59.8435 -9.68773,
		 0 -57.5263 -19.1265,
		 0 -53.7305 -28.0736,
		 0 -48.5537 -36.2992,
		 0 -42.129 -43.5918,
		 0 -34.6215 -49.764,
		 0 -26.2241 -54.6571,
		 0 -17.1526 -58.1454,
		 0 -7.64033 -60.1392,
		 0 2.06835 -60.5873,
		 0 11.7239 -59.4781,
		 0 21.078 -56.8402,
		]
}
	coordIndex	[0 1 2 3 4 5 6 7 8 9 10 11 12  -1 ]
}
}
Shape {
appearance Appearance {
material USE _material1
}
geometry IndexedLineSet {
	coord Coordinate {
point	[
		 0 56.8402 -21.078,
		 0 58.9317 -14.2181,
		 0 60.1984 -7.15914,
		 0 60.6226 -1.65436e-014,
		]
}
	coordIndex	[0 1 2 3  -1 ]
}
}
Shape {
appearance Appearance {
material USE _material1
}
geometry IndexedLineSet {
	coord Coordinate {
point	[
		 0 60.6226 -1.65436e-014,
		 0 59.8762 9.48346,
		 0 57.6555 18.7334,
		 0 54.0151 27.5221,
		 0 49.0447 35.6331,
		 0 42.8666 42.8666,
		 0 35.6331 49.0447,
		 0 27.5221 54.0151,
		 0 18.7334 57.6555,
		 0 9.48346 59.8762,
		 0 3.71194e-015 60.6226,
		 0 -9.48346 59.8762,
		 0 -18.7334 57.6555,
		 0 -27.5221 54.0151,
		 0 -35.6331 49.0447,
		 0 -42.8666 42.8666,
		 0 -49.0447 35.6331,
		 0 -54.0151 27.5221,
		 0 -57.6555 18.7334,
		 0 -59.8762 9.48346,
		 0 -60.6226 5.728e-015,
		]
}
	coordIndex	[0 1 2 3 4 5 6 7 8 9 10 11 12 13 14 15 16 17 18 19 20  -1 ]
}
}
Shape {
appearance Appearance {
material USE _material1
}
geometry IndexedLineSet {
	coord Coordinate {
point	[
		 0 21.078 -56.8402,
		 3.17989 26.4518 -58.0608,
		 5.86177 32.1324 -58.2038,
		 7.57473 36.7026 -57.4786,
		 8.87416 41.1842 -55.9791,
		 9.71836 45.4187 -53.7121,
		 10.0761 49.2344 -50.7374,
		 9.93589 52.492 -47.1496,
		 9.30325 55.0757 -43.0846,
		 8.23964 56.8709 -38.8292,
		 6.76809 57.9365 -34.4219,
		 4.92936 58.2843 -30,
		]
}
	coordIndex	[0 1 2 3 4 5 6 7 8 9 10 11  -1 ]
}
}
Shape {
appearance Appearance {
material USE _material1
}
geometry IndexedLineSet {
	coord Coordinate {
point	[
		 4.92936 58.2843 -30,
		 2.62465 57.9118 -25.425,
		 0 56.8402 -21.078,
		]
}
	coordIndex	[0 1 2  -1 ]
}
}
Shape {
appearance Appearance {
material USE _material1
}
geometry IndexedLineSet {
	coord Coordinate {
point	[
		 0 1.71573 -30,
		 0 2.3272 -35.8495,
		 0 4.13518 -41.446,
		 0 7.06148 -46.5476,
		 0 10.9796 -50.9338,
		 0 15.7201 -54.4148,
		 0 21.078 -56.8402,
		]
}
	coordIndex	[0 1 2 3 4 5 6  -1 ]
}
}
Shape {
appearance Appearance {
material USE _material1
}
geometry IndexedLineSet {
	coord Coordinate {
point	[
		 0 1.71573 -30,
		 0 2.49351 -23.4127,
		 0 4.78408 -17.1876,
		 0 8.46146 -11.6672,
		 0 13.3234 -7.15506,
		 0 19.1025 -3.89933,
		 0 25.481 -2.07907,
		 0 32.108 -1.79439,
		 0 38.619 -3.06094,
		 0 44.656 -5.80908,
		 0 49.887 -9.88765,
		 0 54.0243 -15.0724,
		 0 56.8402 -21.078,
		]
}
	coordIndex	[0 1 2 3 4 5 6 7 8 9 10 11 12  -1 ]
}
}
Shape {
appearance Appearance {
material USE _material1
}
geometry IndexedLineSet {
	coord Coordinate {
point	[
		 0 1.71573 -30,
		 85 1.71573 -30,
		]
}
	coordIndex	[0 1  -1 ]
}
}
Shape {
appearance Appearance {
material USE _material1
}
geometry IndexedLineSet {
	coord Coordinate {
point	[
		 80 -80.6226 9.87309e-015,
		 80 -79.8717 10.9781,
		 80 -77.6329 21.7517,
		 80 -73.9479 32.1201,
		 80 -68.8855 41.8902,
		 80 -62.5398 50.8799,
		 80 -55.0292 58.9219,
		 80 -46.4935 65.8662,
		 80 -37.0916 71.5836,
		 80 -26.9989 75.9675,
		 80 -16.4031 78.9363,
		 80 -5.50188 80.4346,
		 80 5.50188 80.4346,
		 80 16.4031 78.9363,
		 80 26.9989 75.9675,
		 80 37.0916 71.5836,
		 80 46.4935 65.8662,
		 80 55.0292 58.9219,
		 80 62.5398 50.8799,
		 80 68.8855 41.8902,
		 80 73.9479 32.1201,
		 80 77.6329 21.7517,
		 80 79.8717 10.9781,
		 80 80.6226 -9.13534e-014,
		]
}
	coordIndex	[0 1 2 3 4 5 6 7 8 9 10 11 12 13 14 15 16 17 18 19 20 21 22 23  -1 ]
}
}
Shape {
appearance Appearance {
material USE _material1
}
geometry IndexedLineSet {
	coord Coordinate {
point	[
		 80 80.6226 -9.13534e-014,
		 80 79.8717 -10.9781,
		 80 77.6329 -21.7517,
		 80 73.9479 -32.1201,
		 80 68.8855 -41.8902,
		 80 62.5398 -50.8799,
		 80 55.0292 -58.9219,
		 80 46.4935 -65.8662,
		 80 37.0916 -71.5836,
		 80 26.9989 -75.9675,
		 80 16.4031 -78.9363,
		 80 5.50188 -80.4346,
		 80 -5.50188 -80.4346,
		 80 -16.4031 -78.9363,
		 80 -26.9989 -75.9675,
		 80 -37.0916 -71.5836,
		 80 -46.4935 -65.8662,
		 80 -55.0292 -58.9219,
		 80 -62.5398 -50.8799,
		 80 -68.8855 -41.8902,
		 80 -73.9479 -32.1201,
		 80 -77.6329 -21.7517,
		 80 -79.8717 -10.9781,
		 80 -80.6226 9.87309e-015,
		]
}
	coordIndex	[0 1 2 3 4 5 6 7 8 9 10 11 12 13 14 15 16 17 18 19 20 21 22 23  -1 ]
}
}
Shape {
appearance Appearance {
material USE _material1
}
geometry IndexedLineSet {
	coord Coordinate {
point	[
		 85 75.6226 -2.04705e-014,
		 85 74.8529 -10.7622,
		 85 72.5593 -21.3053,
		 85 68.7887 -31.4148,
		 85 63.6178 -40.8847,
		 85 57.1517 -49.5223,
		 85 49.5223 -57.1517,
		 85 40.8847 -63.6178,
		 85 31.4148 -68.7887,
		 85 21.3053 -72.5593,
		 85 10.7622 -74.8529,
		 85 -1.38912e-014 -75.6226,
		 85 -10.7622 -74.8529,
		 85 -21.3053 -72.5593,
		 85 -31.4148 -68.7887,
		 85 -40.8847 -63.6178,
		 85 -49.5223 -57.1517,
		 85 -57.1517 -49.5223,
		 85 -63.6178 -40.8847,
		 85 -68.7887 -31.4148,
		 85 -72.5593 -21.3053,
		 85 -74.8529 -10.7622,
		 85 -75.6226 -5.98545e-014,
		]
}
	coordIndex	[0 1 2 3 4 5 6 7 8 9 10 11 12 13 14 15 16 17 18 19 20 21 22  -1 ]
}
}
Shape {
appearance Appearance {
material USE _material1
}
geometry IndexedLineSet {
	coord Coordinate {
point	[
		 85 -75.6226 -5.98545e-014,
		 85 -74.8529 10.7622,
		 85 -72.5593 21.3053,
		 85 -68.7887 31.4148,
		 85 -63.6178 40.8847,
		 85 -57.1517 49.5223,
		 85 -49.5223 57.1517,
		 85 -40.8847 63.6178,
		 85 -31.4148 68.7887,
		 85 -21.3053 72.5593,
		 85 -10.7622 74.8529,
		 85 -1.21612e-014 75.6226,
		 85 10.7622 74.8529,
		 85 21.3053 72.5593,
		 85 31.4148 68.7887,
		 85 40.8847 63.6178,
		 85 49.5223 57.1517,
		 85 57.1517 49.5223,
		 85 63.6178 40.8847,
		 85 68.7887 31.4148,
		 85 72.5593 21.3053,
		 85 74.8529 10.7622,
		 85 75.6226 -2.04705e-014,
		]
}
	coordIndex	[0 1 2 3 4 5 6 7 8 9 10 11 12 13 14 15 16 17 18 19 20 21 22  -1 ]
}
}
Shape {
appearance Appearance {
material USE _material0
}
geometry IndexedLineSet {
	coord Coordinate {
point	[
		 80 80.6226 -9.13534e-014,
		 82.5 79.9527 0,
		 84.3301 78.1226 0,
		 85 75.6226 -2.04705e-014,
		]
}
	coordIndex	[0 1 2 3  -1 ]
}
}
Shape {
appearance Appearance {
material USE _material1
}
geometry IndexedLineSet {
	coord Coordinate {
point	[
		 85 -75.6226 -5.98545e-014,
		 84.3301 -78.1226 1.42109e-014,
		 82.5 -79.9527 1.42109e-014,
		 80 -80.6226 9.87309e-015,
		]
}
	coordIndex	[0 1 2 3  -1 ]
}
}
Shape {
appearance Appearance {
material USE _material0
}
geometry IndexedLineSet {
	coord Coordinate {
point	[
		 0 60.6226 -1.65436e-014,
		 20 80.6226 -9.13534e-014,
		]
}
	coordIndex	[0 1  -1 ]
}
}
Shape {
appearance Appearance {
material USE _material1
}
geometry IndexedLineSet {
	coord Coordinate {
point	[
		 20 -80.6226 9.87309e-015,
		 0 -60.6226 5.728e-015,
		]
}
	coordIndex	[0 1  -1 ]
}
}
Shape {
appearance Appearance {
material USE _material1
}
geometry IndexedLineSet {
	coord Coordinate {
point	[
		 4.92936 58.2843 -30,
		 85 58.2843 -30,
		]
}
	coordIndex	[0 1  -1 ]
}
}
Shape {
appearance Appearance {
material USE _material1
}
geometry IndexedLineSet {
	coord Coordinate {
point	[
		 20 80.6226 -9.13534e-014,
		 80 80.6226 -9.13534e-014,
		]
}
	coordIndex	[0 1  -1 ]
}
}
Shape {
appearance Appearance {
material USE _material1
}
geometry IndexedLineSet {
	coord Coordinate {
point	[
		 80 -80.6226 9.87309e-015,
		 20 -80.6226 9.87309e-015,
		]
}
	coordIndex	[0 1  -1 ]
}
}
	]
}
	]
}
	]
}
	]
}
Group {
	children [
Group {
	children [
DEF _2466E7A8 Group {
	children [
	]
}
	]
}
Group {
	children [
DEF _2466B378 Group {
	children [
	]
}
	]
}
Group {
	children [
DEF _245AB3B8 Group {
	children [
	]
}
	]
}
Group {
	children [
Group {
	children [
DEF _007A27C8 Group {
	children [
Shape {
appearance Appearance {
material USE _material0
}
geometry IndexedFaceSet {
solid FALSE
coord Coordinate {
	point	[
		 -41.704 50 -7.79583,
		 -39.5614 50 -15.3262,
		 -36.0717 50 -22.3346,
		 -31.3535 50 -28.5825,
		 -25.5676 50 -33.857,
		 -18.9111 50 -37.9786,
		 -11.6105 50 -40.8068,
		 -3.91461 50 -42.2454,
		 3.91461 50 -42.2454,
		 11.6105 50 -40.8068,
		 18.9111 50 -37.9786,
		 25.5676 50 -33.857,
		 31.3535 50 -28.5825,
		 36.0717 50 -22.3346,
		 39.5614 50 -15.3262,
		 41.704 50 -7.79583,
		 42.4264 50 5.19556e-015,
		 41.704 50 7.79583,
		 39.5614 50 15.3262,
		 36.0717 50 22.3346,
		 31.3535 50 28.5825,
		 25.5676 50 33.857,
		 18.9111 50 37.9786,
		 11.6105 50 40.8068,
		 3.91461 50 42.2454,
		 -3.91461 50 42.2454,
		 -11.6105 50 40.8068,
		 -18.9111 50 37.9786,
		 -25.5676 50 33.857,
		 -31.3535 50 28.5825,
		 -36.0717 50 22.3346,
		 -39.5614 50 15.3262,
		 -41.704 50 7.79583,
		 -42.4264 50 0,
		]
	}
coordIndex [
 25,24,26,-1,
 24,23,26,-1,
 26,23,27,-1,
 23,22,27,-1,
 27,22,28,-1,
 22,21,28,-1,
 28,21,29,-1,
 21,20,29,-1,
 29,20,30,-1,
 20,19,30,-1,
 30,19,31,-1,
 19,18,31,-1,
 31,18,32,-1,
 18,17,32,-1,
 32,17,33,-1,
 17,16,33,-1,
 33,16,0,-1,
 16,15,0,-1,
 0,15,1,-1,
 15,14,1,-1,
 1,14,2,-1,
 14,13,2,-1,
 2,13,3,-1,
 13,12,3,-1,
 3,12,4,-1,
 12,11,4,-1,
 4,11,5,-1,
 11,10,5,-1,
 5,10,6,-1,
 10,9,6,-1,
 6,9,7,-1,
 9,8,7,-1,
]

}
}
Shape {
appearance Appearance {
material USE _material0
}
geometry IndexedFaceSet {
solid FALSE
coord Coordinate {
	point	[
		 -41.704 -50 -7.79583,
		 -39.5614 -50 -15.3262,
		 -36.0717 -50 -22.3346,
		 -31.3535 -50 -28.5825,
		 -25.5676 -50 -33.857,
		 -18.9111 -50 -37.9786,
		 -11.6105 -50 -40.8068,
		 -3.91461 -50 -42.2454,
		 3.91461 -50 -42.2454,
		 11.6105 -50 -40.8068,
		 18.9111 -50 -37.9786,
		 25.5676 -50 -33.857,
		 31.3535 -50 -28.5825,
		 36.0717 -50 -22.3346,
		 39.5614 -50 -15.3262,
		 41.704 -50 -7.79583,
		 42.4264 -50 5.19556e-015,
		 41.704 -50 7.79583,
		 39.5614 -50 15.3262,
		 36.0717 -50 22.3346,
		 31.3535 -50 28.5825,
		 25.5676 -50 33.857,
		 18.9111 -50 37.9786,
		 11.6105 -50 40.8068,
		 3.91461 -50 42.2454,
		 -3.91461 -50 42.2454,
		 -11.6105 -50 40.8068,
		 -18.9111 -50 37.9786,
		 -25.5676 -50 33.857,
		 -31.3535 -50 28.5825,
		 -36.0717 -50 22.3346,
		 -39.5614 -50 15.3262,
		 -41.704 -50 7.79583,
		 -42.4264 -50 0,
		]
	}
coordIndex [
 33,17,32,-1,
 17,18,32,-1,
 32,18,31,-1,
 18,19,31,-1,
 31,19,30,-1,
 19,20,30,-1,
 30,20,29,-1,
 20,21,29,-1,
 29,21,28,-1,
 21,22,28,-1,
 28,22,27,-1,
 22,23,27,-1,
 27,23,26,-1,
 23,24,26,-1,
 26,24,25,-1,
 17,33,16,-1,
 33,0,16,-1,
 16,0,15,-1,
 0,1,15,-1,
 15,1,14,-1,
 1,2,14,-1,
 14,2,13,-1,
 2,3,13,-1,
 13,3,12,-1,
 3,4,12,-1,
 12,4,11,-1,
 4,5,11,-1,
 11,5,10,-1,
 5,6,10,-1,
 10,6,9,-1,
 6,7,9,-1,
 9,7,8,-1,
]

}
}
Shape {
appearance Appearance {
material USE _material0
}
geometry IndexedFaceSet {
solid FALSE
coord Coordinate {
	point	[
		 41.704 50 -7.79583,
		 39.5614 50 -15.3262,
		 36.0717 50 -22.3346,
		 31.3535 50 -28.5825,
		 25.5676 50 -33.857,
		 18.9111 50 -37.9786,
		 11.6105 50 -40.8068,
		 3.91461 50 -42.2454,
		 -3.91461 50 -42.2454,
		 -11.6105 50 -40.8068,
		 -18.9111 50 -37.9786,
		 -25.5676 50 -33.857,
		 -31.3535 50 -28.5825,
		 -36.0717 50 -22.3346,
		 -39.5614 50 -15.3262,
		 -41.704 50 -7.79583,
		 -42.4264 50 0,
		 -42.4264 -50 0,
		 -41.704 -50 -7.79583,
		 -39.5614 -50 -15.3262,
		 -36.0717 -50 -22.3346,
		 -31.3535 -50 -28.5825,
		 -25.5676 -50 -33.857,
		 -18.9111 -50 -37.9786,
		 -11.6105 -50 -40.8068,
		 -3.91461 -50 -42.2454,
		 3.91461 -50 -42.2454,
		 11.6105 -50 -40.8068,
		 18.9111 -50 -37.9786,
		 25.5676 -50 -33.857,
		 31.3535 -50 -28.5825,
		 36.0717 -50 -22.3346,
		 39.5614 -50 -15.3262,
		 41.704 -50 -7.79583,
		 42.4264 -50 5.19556e-015,
		 42.4264 50 5.19556e-015,
		]
	}
normal Normal {
	vector	[
		0.982973 0 -0.18375,
		0.932472 0 -0.361242,
		0.850217 0 -0.526432,
		0.739009 0 -0.673696,
		0.602635 0 -0.798017,
		0.445738 0 -0.895163,
		0.273663 0 -0.961826,
		0.0922684 0 -0.995734,
		-0.0922684 0 -0.995734,
		-0.273663 0 -0.961826,
		-0.445738 0 -0.895163,
		-0.602635 0 -0.798017,
		-0.739009 0 -0.673696,
		-0.850217 0 -0.526432,
		-0.932472 0 -0.361242,
		-0.982973 0 -0.18375,
		-1 0 -2.44921e-016,
		-1 0 -2.44921e-016,
		-0.982973 0 -0.18375,
		-0.932472 0 -0.361242,
		-0.850217 0 -0.526432,
		-0.739009 0 -0.673696,
		-0.602635 0 -0.798017,
		-0.445738 0 -0.895163,
		-0.273663 0 -0.961826,
		-0.0922684 0 -0.995734,
		0.0922684 0 -0.995734,
		0.273663 0 -0.961826,
		0.445738 0 -0.895163,
		0.602635 0 -0.798017,
		0.739009 0 -0.673696,
		0.850217 0 -0.526432,
		0.932472 0 -0.361242,
		0.982973 0 -0.18375,
		1 -0 1.22461e-016,
		1 -0 1.22461e-016,
		]
	}
coordIndex [
 17,16,18,-1,
 16,15,18,-1,
 18,15,19,-1,
 15,14,19,-1,
 19,14,20,-1,
 14,13,20,-1,
 20,13,21,-1,
 13,12,21,-1,
 21,12,22,-1,
 12,11,22,-1,
 22,11,23,-1,
 11,10,23,-1,
 23,10,24,-1,
 10,9,24,-1,
 24,9,25,-1,
 9,8,25,-1,
 25,8,26,-1,
 8,7,26,-1,
 26,7,27,-1,
 7,6,27,-1,
 27,6,28,-1,
 6,5,28,-1,
 28,5,29,-1,
 5,4,29,-1,
 29,4,30,-1,
 4,3,30,-1,
 30,3,31,-1,
 3,2,31,-1,
 31,2,32,-1,
 2,1,32,-1,
 32,1,33,-1,
 1,0,33,-1,
 33,0,34,-1,
 0,35,34,-1,
]

}
}
Shape {
appearance Appearance {
material USE _material0
}
geometry IndexedFaceSet {
solid FALSE
coord Coordinate {
	point	[
		 -41.704 50 7.79583,
		 -39.5614 50 15.3262,
		 -36.0717 50 22.3346,
		 -31.3535 50 28.5825,
		 -25.5676 50 33.857,
		 -18.9111 50 37.9786,
		 -11.6105 50 40.8068,
		 -3.91461 50 42.2454,
		 3.91461 50 42.2454,
		 11.6105 50 40.8068,
		 18.9111 50 37.9786,
		 25.5676 50 33.857,
		 31.3535 50 28.5825,
		 36.0717 50 22.3346,
		 39.5614 50 15.3262,
		 41.704 50 7.79583,
		 42.4264 50 5.19556e-015,
		 42.4264 -50 5.19556e-015,
		 41.704 -50 7.79583,
		 39.5614 -50 15.3262,
		 36.0717 -50 22.3346,
		 31.3535 -50 28.5825,
		 25.5676 -50 33.857,
		 18.9111 -50 37.9786,
		 11.6105 -50 40.8068,
		 3.91461 -50 42.2454,
		 -3.91461 -50 42.2454,
		 -11.6105 -50 40.8068,
		 -18.9111 -50 37.9786,
		 -25.5676 -50 33.857,
		 -31.3535 -50 28.5825,
		 -36.0717 -50 22.3346,
		 -39.5614 -50 15.3262,
		 -41.704 -50 7.79583,
		 -42.4264 -50 0,
		 -42.4264 50 0,
		]
	}
normal Normal {
	vector	[
		-0.982973 0 0.18375,
		-0.932472 0 0.361242,
		-0.850217 0 0.526432,
		-0.739009 0 0.673696,
		-0.602635 0 0.798017,
		-0.445738 0 0.895163,
		-0.273663 0 0.961826,
		-0.0922684 0 0.995734,
		0.0922684 -0 0.995734,
		0.273663 -0 0.961826,
		0.445738 -0 0.895163,
		0.602635 -0 0.798017,
		0.739009 -0 0.673696,
		0.850217 -0 0.526432,
		0.932472 -0 0.361242,
		0.982973 -0 0.18375,
		1 -0 1.22461e-016,
		1 -0 1.22461e-016,
		0.982973 -0 0.18375,
		0.932472 -0 0.361242,
		0.850217 -0 0.526432,
		0.739009 -0 0.673696,
		0.602635 -0 0.798017,
		0.445738 -0 0.895163,
		0.273663 -0 0.961826,
		0.0922684 -0 0.995734,
		-0.0922684 0 0.995734,
		-0.273663 0 0.961826,
		-0.445738 0 0.895163,
		-0.602635 0 0.798017,
		-0.739009 0 0.673696,
		-0.850217 0 0.526432,
		-0.932472 0 0.361242,
		-0.982973 0 0.18375,
		-1 0 0,
		-1 0 0,
		]
	}
coordIndex [
 17,16,18,-1,
 16,15,18,-1,
 18,15,19,-1,
 15,14,19,-1,
 19,14,20,-1,
 14,13,20,-1,
 20,13,21,-1,
 13,12,21,-1,
 21,12,22,-1,
 12,11,22,-1,
 22,11,23,-1,
 11,10,23,-1,
 23,10,24,-1,
 10,9,24,-1,
 24,9,25,-1,
 9,8,25,-1,
 25,8,26,-1,
 8,7,26,-1,
 26,7,27,-1,
 7,6,27,-1,
 27,6,28,-1,
 6,5,28,-1,
 28,5,29,-1,
 5,4,29,-1,
 29,4,30,-1,
 4,3,30,-1,
 30,3,31,-1,
 3,2,31,-1,
 31,2,32,-1,
 2,1,32,-1,
 32,1,33,-1,
 1,0,33,-1,
 33,0,34,-1,
 0,35,34,-1,
]

}
}
Shape {
appearance Appearance {
material USE _material1
}
geometry IndexedLineSet {
	coord Coordinate {
point	[
		 -42.4264 -50 0,
		 -41.704 -50 7.79583,
		 -39.5614 -50 15.3262,
		 -36.0717 -50 22.3346,
		 -31.3535 -50 28.5825,
		 -25.5676 -50 33.857,
		 -18.9111 -50 37.9786,
		 -11.6105 -50 40.8068,
		 -3.91461 -50 42.2454,
		 3.91461 -50 42.2454,
		 11.6105 -50 40.8068,
		 18.9111 -50 37.9786,
		 25.5676 -50 33.857,
		 31.3535 -50 28.5825,
		 36.0717 -50 22.3346,
		 39.5614 -50 15.3262,
		 41.704 -50 7.79583,
		 42.4264 -50 5.19556e-015,
		]
}
	coordIndex	[0 1 2 3 4 5 6 7 8 9 10 11 12 13 14 15 16 17  -1 ]
}
}
Shape {
appearance Appearance {
material USE _material1
}
geometry IndexedLineSet {
	coord Coordinate {
point	[
		 -42.4264 50 0,
		 -41.704 50 7.79583,
		 -39.5614 50 15.3262,
		 -36.0717 50 22.3346,
		 -31.3535 50 28.5825,
		 -25.5676 50 33.857,
		 -18.9111 50 37.9786,
		 -11.6105 50 40.8068,
		 -3.91461 50 42.2454,
		 3.91461 50 42.2454,
		 11.6105 50 40.8068,
		 18.9111 50 37.9786,
		 25.5676 50 33.857,
		 31.3535 50 28.5825,
		 36.0717 50 22.3346,
		 39.5614 50 15.3262,
		 41.704 50 7.79583,
		 42.4264 50 5.19556e-015,
		]
}
	coordIndex	[0 1 2 3 4 5 6 7 8 9 10 11 12 13 14 15 16 17  -1 ]
}
}
Shape {
appearance Appearance {
material USE _material1
}
geometry IndexedLineSet {
	coord Coordinate {
point	[
		 42.4264 -50 5.19556e-015,
		 41.704 -50 -7.79583,
		 39.5614 -50 -15.3262,
		 36.0717 -50 -22.3346,
		 31.3535 -50 -28.5825,
		 25.5676 -50 -33.857,
		 18.9111 -50 -37.9786,
		 11.6105 -50 -40.8068,
		 3.91461 -50 -42.2454,
		 -3.91461 -50 -42.2454,
		 -11.6105 -50 -40.8068,
		 -18.9111 -50 -37.9786,
		 -25.5676 -50 -33.857,
		 -31.3535 -50 -28.5825,
		 -36.0717 -50 -22.3346,
		 -39.5614 -50 -15.3262,
		 -41.704 -50 -7.79583,
		 -42.4264 -50 0,
		]
}
	coordIndex	[0 1 2 3 4 5 6 7 8 9 10 11 12 13 14 15 16 17  -1 ]
}
}
Shape {
appearance Appearance {
material USE _material1
}
geometry IndexedLineSet {
	coord Coordinate {
point	[
		 42.4264 50 5.19556e-015,
		 41.704 50 -7.79583,
		 39.5614 50 -15.3262,
		 36.0717 50 -22.3346,
		 31.3535 50 -28.5825,
		 25.5676 50 -33.857,
		 18.9111 50 -37.9786,
		 11.6105 50 -40.8068,
		 3.91461 50 -42.2454,
		 -3.91461 50 -42.2454,
		 -11.6105 50 -40.8068,
		 -18.9111 50 -37.9786,
		 -25.5676 50 -33.857,
		 -31.3535 50 -28.5825,
		 -36.0717 50 -22.3346,
		 -39.5614 50 -15.3262,
		 -41.704 50 -7.79583,
		 -42.4264 50 0,
		]
}
	coordIndex	[0 1 2 3 4 5 6 7 8 9 10 11 12 13 14 15 16 17  -1 ]
}
}
Shape {
appearance Appearance {
material USE _material1
}
geometry IndexedLineSet {
	coord Coordinate {
point	[
		 -42.4264 -50 0,
		 -42.4264 50 0,
		]
}
	coordIndex	[0 1  -1 ]
}
}
Shape {
appearance Appearance {
material USE _material1
}
geometry IndexedLineSet {
	coord Coordinate {
point	[
		 42.4264 -50 5.19556e-015,
		 42.4264 50 5.19556e-015,
		]
}
	coordIndex	[0 1  -1 ]
}
}
	]
}
	]
}
	]
}
	]
}
	]
}
	]
}

